
{
    "gitrepo": "gitlab-ce",
    "giturl": "https://gitlab.com/gitlab-org",
    "gitremote": "origin",
    "gitbranch": "master",
    "limitCommits": "-1000",
    "datadir": "~/Documents/src/d3showcase_git/web/data",
    "tmpdir": "~/tmp/d3showcase",
    "charts": {
        "authorMailPie": "false",
        "authorMailSelectMenu": "true",
        "authorNamePie": "false",
        "authorNameSelectMenu": "false",
        "authorWeekdayBar": "true",
        "committerMailPie": "true",
        "committerMailSelectMenu": "false",
        "committerNamePie": "false",
        "committerNameSelectMenu": "false",
        "committerWeekdayBar": "false",
        "dataTableMail": "true",
        "dataTableName": "false",
        "delayBar": "true",
        "timeLine": "true"
    }
}
